{
    "homepage": {
        "path": "/",
        "callable": "App\\AppController::homepage",
        "methods": ["GET"]
    },
    "another-page": {
        "path": "/other",
        "callable": "App\\AppController::anotherPage",
        "methods": ["GET"]
    }
}
